[
  {
    "id": "9b565b11-7311-5b5e-a699-97873dffb361",
    "name": "Netflix Portugal",
    "description": "Veja séries de televisão online.",
    "categories": ["Séries", "Filmes", "Documentarios", "Infantil"],
    "subscriptions": [
      {
        "name": "Base",
        "price": 7.99
      },
      {
        "name": "Standard",
        "price": 10.99
      },
      {
        "name": "Premium",
        "price": 13.99
      }
    ]
  },
  {
    "id": "470fedc5-489e-5acb-a200-c85adaa18356",
    "name": "HBO Portugal",
    "description": "Descubra as melhores séries, filmes e conteúdo infantil na HBO.",
    "categories": ["Séries", "Filmes", "Documentarios", "Infantil"],
    "subscriptions": [
      {
        "name": "Standard",
        "price": 4.99
      }
    ]
  },
  {
    "id": "52714d80-e3c4-5593-b9a3-e2ff484be372",
    "name": "Amazon Prime Video Portugal",
    "description": "Milhares de filmes para ver em qualquer lugar..",
    "categories": ["Séries", "Filmes", "Documentarios"],
    "subscriptions": [
      {
        "name": "Standard",
        "price": 5.99
      }
    ]
  },
  {
    "id": "8d68c357-59e6-505a-b0e1-4953196b14df",
    "name": "MUBI",
    "description": "Assista ótimos filmes. Onde quer que você esteja. Sem anúncios. Nunca.",
    "categories": ["Filmes"],
    "subscriptions": [
      {
        "name": "Standard",
        "price": 9.99
      }
    ]
  },
  {
    "id": "dd024ed5-efae-5785-addc-09e592066e5c",
    "name": "Filmin Portugal",
    "description": "Filmin, a tua fonte de cinema, séries e curtas online Filmin",
    "categories": ["Filmes", "Séries"],
    "subscriptions": [
      {
        "name": "Standard",
        "price": 6.95
      },
      {
        "name": "Plus",
        "price": 14.99
      }
    ]
  },
  {
    "id": "f820ad5d-32d0-5bb7-aed4-cbc74bcf0b47",
    "name": "Apple TV",
    "description": "Com a app Apple TV, pode assinar os canais que pretender, sem a necessidade de descarregar outras apps.",
    "categories": ["TV", "Filmes", "Séries"],
    "subscriptions": [
      {
        "name": "Standard",
        "price": 4.99
      }
    ]
  },
  {
    "id": "7f89f001-9d7d-52f1-82cb-8f44eb1e4680",
    "name": "Disney Plus",
    "description":" A casa da Disney, Marvel, Pixar, Star.",
    "categories": ["Filmes", "Séries"],
    "subscriptions": [
      {
        "name": "Standard",
        "price": 6.99
      }
    ]
  },
  {
    "id": "32be8940-aeb6-5325-ae63-6497772f362a",
    "name": "Sport TV",
    "description": "O melhor do desporto nacional e internacional, em exclusivo, em direto e em alta definição.",
    "categories": ["TV", "Desporto"],
    "subscriptions": [
      {
        "name": "Standard",
        "price": 27.99
      },
      {
        "name": "Plus",
        "price": 29.99
      }
    ]
  },
  {
    "id": "b4e7899b-07ba-55b1-9ed3-c38b878623fe",
    "name": "Elevens",
    "description": "Canal oficial, de Alta Definição e exclusivo da Champions League, F1, LaLiga, Ligue1, Bundesliga, NFL entre muitos outros.",
    "categories": ["TV", "Desporto"],
    "subscriptions": [
      {
        "name": "Standard",
        "price": 9.16
      }
    ]
  },
  {
    "id": "d8652502-f8f2-5c35-8de5-b9adfebbf4cf",
    "name": "TVCine",
    "description": "Nos Canais TVCine há animação garantida para toda a família.",
    "categories": ["TV", "Filmes"],
    "subscriptions": [
      {
        "name": "Standard",
        "price": 10
      }
    ]
  }
]
